{
  "page": 1,
  "perPage": 6,
  "total": 12,
  "totalPages": 2,
  "data": [
    {
      "id": 1,
      "email": "george.bluth@reqres.in",
      "firstName": "George",
      "lastName": "Bluth",
      "avatar": "https://s3.amazonaws.com/uifaces/faces/twitter/calebogden/128.jpg"
    },
    {
      "id": 2,
      "email": "janet.weaver@reqres.in",
      "firstName": "Janet",
      "lastName": "Weaver",
      "avatar": "https://s3.amazonaws.com/uifaces/faces/twitter/josephstein/128.jpg"
    },
    {
      "id": 3,
      "email": "emma.wong@reqres.in",
      "firstName": "Emma",
      "lastName": "Wong",
      "avatar": "https://s3.amazonaws.com/uifaces/faces/twitter/olegpogodaev/128.jpg"
    },
    {
      "id": 4,
      "email": "eve.holt@reqres.in",
      "firstName": "Eve",
      "lastName": "Holt",
      "avatar": "https://s3.amazonaws.com/uifaces/faces/twitter/marcoramires/128.jpg"
    },
    {
      "id": 5,
      "email": "charles.morris@reqres.in",
      "firstName": "Charles",
      "lastName": "Morris",
      "avatar": "https://s3.amazonaws.com/uifaces/faces/twitter/stephenmoon/128.jpg"
    },
    {
      "id": 6,
      "email": "tracey.ramos@reqres.in",
      "firstName": "Tracey",
      "lastName": "Ramos",
      "avatar": "https://s3.amazonaws.com/uifaces/faces/twitter/bigmancho/128.jpg"
    }
  ],
  "ad": {
    "company": "StatusCode Weekly",
    "url": "http://statuscode.org/",
    "text": "A weekly newsletter focusing on software development, infrastructure, the server, performance, and the stack end of things."
  }
}